Puzzle Solving Case Study:
…
This is what we are doing step by step:

In an new object called poor_can we

go to the lns

then we generate counts for newgen and pood_r

then with mutate we create a column called

And this is what it looks like:

poor_can

## # A tibble: 24 x 4
## # Groups:   newgen [6]
##    newgen poord_r               n   prop
##     <dbl> <fct>             <int>  <dbl>
##  1    1   strongly disagree   135 0.0245
##  2    1   somewhat disagree   121 0.0219
##  3    1   somewhat agree      879 0.159 
##  4    1   strongly agree     4227 0.766 
##  5    1.5 strongly disagree    20 0.0348
##  6    1.5 somewhat disagree    13 0.0226
##  7    1.5 somewhat agree      103 0.179 
##  8    1.5 strongly agree      422 0.734 
##  9    2   strongly disagree    51 0.0503
## 10    2   somewhat disagree    46 0.0454
## # ... with 14 more rows
…
